#define iconify_width 12
#define iconify_height 11
static unsigned char iconify_bits[] = {
   0x00, 0x00, 0xfe, 0x07, 0xfe, 0x07, 0xfe, 0x07, 0x00, 0x00, 0x00, 0x00,
   0x00, 0x00, 0x00, 0x00, 0x00, 0x00, 0x00, 0x00, 0x00, 0x00 };
